Using R more “wisely”
…
`rowwise()` lets you run operations one row at a time on the data. It’s a lot like `group_by()`, but it groups the data by row, rather than group. 

--
***

What happens when you use `rowwise()` to create a rowwise data frame? 👀

```r
penguins %>% 
  rowwise()
```

```
## # A tibble: 344 x 8
## # Rowwise: 
##    species island bill_length_mm bill_depth_mm flipper_length_… body_mass_g
##    <fct>   <fct>           <dbl>         <dbl>            <int>       <int>
##  1 Adelie  Torge…           39.1          18.7              181        3750
##  2 Adelie  Torge…           39.5          17.4              186        3800
##  3 Adelie  Torge…           40.3          18                195        3250
##  4 Adelie  Torge…           NA            NA                 NA          NA
##  5 Adelie  Torge…           36.7          19.3              193        3450
##  6 Adelie  Torge…           39.3          20.6              190        3650
##  7 Adelie  Torge…           38.9          17.8              181        3625
##  8 Adelie  Torge…           39.2          19.6              195        4675
##  9 Adelie  Torge…           34.1          18.1              193        3475
## 10 Adelie  Torge…           42            20.2              190        4250
## # … with 334 more rows, and 2 more variables: sex <fct>, year <int>
```
…
.panelset[

.panel[.panel-name[Code]

```r
penguins %>%
  mutate(avg_bill = mean(c(bill_length_mm, bill_depth_mm), na.rm = TRUE)) %>%
  select(species, island, avg_bill)
```
]

.panel[.panel-name[Output]

```
## # A tibble: 344 x 3
##    species island    avg_bill
##    <fct>   <fct>        <dbl>
##  1 Adelie  Torgersen     30.5
##  2 Adelie  Torgersen     30.5
##  3 Adelie  Torgersen     30.5
##  4 Adelie  Torgersen     30.5
##  5 Adelie  Torgersen     30.5
##  6 Adelie  Torgersen     30.5
##  7 Adelie  Torgersen     30.5
##  8 Adelie  Torgersen     30.5
##  9 Adelie  Torgersen     30.5
## 10 Adelie  Torgersen     30.5
## # … with 334 more rows
```
…
.panel[.panel-name[Code]

```r
penguins %>%
  rowwise() %>%
  mutate(avg_bill = mean(c(bill_length_mm, bill_depth_mm), na.rm = TRUE)) %>%
  select(species, island, avg_bill)
```
]

.panel[.panel-name[Output]

```
## # A tibble: 344 x 3
## # Rowwise: 
##    species island    avg_bill
##    <fct>   <fct>        <dbl>
##  1 Adelie  Torgersen     28.9
##  2 Adelie  Torgersen     28.4
##  3 Adelie  Torgersen     29.2
##  4 Adelie  Torgersen    NaN  
##  5 Adelie  Torgersen     28  
##  6 Adelie  Torgersen     30.0
##  7 Adelie  Torgersen     28.4
##  8 Adelie  Torgersen     29.4
##  9 Adelie  Torgersen     26.1
## 10 Adelie  Torgersen     31.1
## # … with 334 more rows
```
…
.panel[.panel-name[Code]

```r
penguins %>%
  rowwise() %>%
  mutate(avg_bill = mean(c_across(contains("bill")), na.rm = TRUE)) %>%
  select(species, island, avg_bill)
```

]

.panel[.panel-name[Output]

```
## # A tibble: 344 x 3
## # Rowwise: 
##    species island    avg_bill
##    <fct>   <fct>        <dbl>
##  1 Adelie  Torgersen     28.9
##  2 Adelie  Torgersen     28.4
##  3 Adelie  Torgersen     29.2
##  4 Adelie  Torgersen    NaN  
##  5 Adelie  Torgersen     28  
##  6 Adelie  Torgersen     30.0
##  7 Adelie  Torgersen     28.4
##  8 Adelie  Torgersen     29.4
##  9 Adelie  Torgersen     26.1
## 10 Adelie  Torgersen     31.1
## # … with 334 more rows
```
…
# List columns

How would you extract the data frame containing the data for Chinstrap penguins out of `nested_penguins`?

--

Notice it does not contain the `species` variable 👀

```r
nested_penguins$data[[2]]
```

```
## # A tibble: 68 x 7
##    island bill_length_mm bill_depth_mm flipper_length_mm body_mass_g sex    year
##    <fct>           <dbl>         <dbl>             <int>       <int> <fct> <int>
##  1 Dream            46.5          17.9               192        3500 fema…  2007
##  2 Dream            50            19.5               196        3900 male   2007
##  3 Dream            51.3          19.2               193        3650 male   2007
##  4 Dream            45.4          18.7               188        3525 fema…  2007
##  5 Dream            52.7          19.8               197        3725 male   2007
##  6 Dream            45.2          17.8               198        3950 fema…  2007
##  7 Dream            46.1          18.2               178        3250 fema…  2007
##  8 Dream            51.3          18.2               197        3750 male   2007
##  9 Dream            46            18.9               195        4150 fema…  2007
## 10 Dream            51.3          19.9               198        3700 male   2007
## # … with 58 more rows
```
…
